{
    "KPlugin": {
        "Description": "Inform when a new printer is detected, and print problems",
        "Description[ast]": "Informa cuando se deteuta una imprentadora nueva y de los sos problemes",
        "Description[ca@valencia]": "Informa quan es detecta una impressora nova, dels problemes de la impressió",
        "Description[ca]": "Informa quan es detecta una impressora nova, dels problemes de la impressió",
        "Description[cs]": "Informovat, když je detekována nová tiskárna a při tiskových problémech",
        "Description[de]": "Benachrichtigung über neu erkannte Drucker und Probleme beim Drucken",
        "Description[el]": "Ενημερώνει σχετικά με την ανίχνευση νέου εκτυπωτή και για προβλήματα εκτύπωσης",
        "Description[en_GB]": "Inform when a new printer is detected, and print problems",
        "Description[es]": "Informa cuando se detecta una nueva impresora y de los problemas de impresión",
        "Description[et]": "Teavitamine uue printeri tuvastamise korral ja probleemide näitamine",
        "Description[eu]": "Jakinarazi inprimagailu berri bat hauteman denean, eta inprimaketa arazoak daudenean",
        "Description[fi]": "Ilmoita uusista tulostimista sekä tulostusongelmista",
        "Description[fr]": "Informe lors de la détection d'une nouvelle imprimante et affiche les problèmes",
        "Description[gl]": "Informar ao detectar unha nova impresora e problemas de impresión",
        "Description[ia]": "Informa quando un nove imrimitor es relevate, e problemas de imprimer",
        "Description[it]": "Informa quando viene rilevata una nuova stampante o se ci sono problemi di stampa",
        "Description[ko]": "새 프린터가 감지되거나 문제가 생겼을 때 알림",
        "Description[lt]": "Informuoti aptikus naują spausdintuvą ir spausdinimo problemas",
        "Description[nl]": "Toon wanneer een nieuwe printer is ontdekt en toon problemen",
        "Description[nn]": "Varsla når ein ny skrivar eller utskriftsproblem vert oppdaga",
        "Description[pt]": "Informa quando é detectada uma nova impressora, bem como problemas na impressão",
        "Description[pt_BR]": "Informa quando uma nova impressora for detectada ou ocorrerem erros de impressão",
        "Description[ru]": "Сообщает об обнаружении новых принтеров и проблем с печатью",
        "Description[sk]": "Informuje, keď sa nájde nová tlačiareň, a vytlačí problémy",
        "Description[sl]": "Obvešča o odkritju novega tiskalnika in težavah s tiskanjem",
        "Description[sv]": "Informera om när en ny skrivare detekteras, och om utskriftsproblem",
        "Description[uk]": "Повідомлення щодо виявлення принтера та щодо проблем з принтером",
        "Description[x-test]": "xxInform when a new printer is detected, and print problemsxx",
        "Description[zh_CN]": "提示新检测到的打印机以及打印问题",
        "Description[zh_TW]": "在偵測到新列印機或遇到列印問題時通知",
        "Name": "Print Manager",
        "Name[ast]": "Xestor d'imprentación",
        "Name[ca@valencia]": "Gestor d'impressió",
        "Name[ca]": "Gestor d'impressió",
        "Name[cs]": "Správce tisku",
        "Name[de]": "Druckerverwaltung",
        "Name[el]": "Διαχείριση εκτυπώσεων",
        "Name[en_GB]": "Print Manager",
        "Name[es]": "Gestor de impresión",
        "Name[et]": "Trükkimishaldur",
        "Name[eu]": "Inprimatze-kudeatzailea",
        "Name[fi]": "Tulostushallinta",
        "Name[fr]": "Gestionnaire d'impression",
        "Name[gl]": "Xestor de impresión",
        "Name[ia]": "Gerente de imprimer",
        "Name[it]": "Gestore delle stampe",
        "Name[ko]": "인쇄 관리자",
        "Name[lt]": "Spausdinimo tvarkytuvė",
        "Name[nl]": "Afdrukbeheer",
        "Name[nn]": "Utskriftshandsamar",
        "Name[pt]": "Gestor de Impressão",
        "Name[pt_BR]": "Gerenciador de impressão",
        "Name[ru]": "Диспетчер печати",
        "Name[sk]": "Správca tlače",
        "Name[sl]": "Print Manager",
        "Name[sv]": "Utskriftshanterare",
        "Name[uk]": "Керування друком",
        "Name[x-test]": "xxPrint Managerxx",
        "Name[zh_CN]": "打印管理器",
        "Name[zh_TW]": "列印管理工具",
        "ServiceTypes": [
            "KDEDModule"
        ]
    },
    "OnlyShowIn": "KDE;",
    "X-KDE-Kded-autoload": true,
    "X-KDE-Kded-phase": 1,
    "X-KDE-ModuleType": "Library"
}
